"Resource/UI/NotificationToastControl.res"
{
	"NotificationToastControl"
	{
		"ControlName"								"CNotificationToastControl"
		"fieldName"									"NotificationToastControl"
		"xpos"										"0"
		"ypos"										"0"
		"zpos"										"1"
		"wide"										"226"
		"tall"										"30"
		"visible"									"1"
		"enabled"									"1"
		"paintborder"								"1"
		"PaintBackgroundType"						"0"
		"paintbackground"							"0"
		"border"									"MaterialGrayDark"
	}

	"DeleteButton"
	{
		"ControlName"								"CExImageButton"
		"fieldName"									"DeleteButton"
		"xpos"										"198"
		"ypos"										"3"
		"zpos"										"10"
		"wide"										"24"
		"tall"										"24"
		"autoResize"								"0"
		"pinCorner"									"0"
		"visible"									"0"
		"enabled"									"1"
		"tabPosition"								"0"
		"labeltext"									"-"
		"font"										"Symbols 18"
		"textAlignment"								"center"
		"dulltext"									"0"
		"brighttext"								"0"
		"default"									"1"
		"Command"									"delete"
		"sound_depressed"							"UI/buttonclick.wav"
		"sound_released"							"UI/buttonclickrelease.wav"

		"paintbackground"							"0"
		"border_default"							"MaterialGrayDarkest"
		"border_armed"								"MaterialRed"

		"defaultFgColor_override"					"White"
		"armedFgColor_override"						"White"
		"depressedFgColor_override" 				"White"
	}

	"TriggerButton"
	{
		"ControlName"								"CExImageButton"
		"fieldName"									"TriggerButton"
		"xpos"										"177"
		
		"if_one_button"
		{
			"xpos"									"198"
		}
		
		"ypos"										"3"
		"zpos"										"10"
		"wide"										"24"
		"tall"										"24"
		"autoResize"								"0"
		"pinCorner"									"0"
		"visible"									"0"
		"enabled"									"1"
		"tabPosition"								"0"
		"labeltext"									"m"
		"font"										"Symbols 18"
		"textAlignment"								"center"
		"dulltext"									"0"
		"brighttext"								"0"
		"default"									"1"
		"sound_depressed"							"UI/buttonclick.wav"
		"sound_released"							"UI/buttonclickrelease.wav"
		"Command"									"trigger"

		"paintbackground"							"0"
		"border_default"							"MaterialGrayDarkest"
		"border_armed"								"MaterialGreen"

		"defaultFgColor_override"					"White"
		"armedFgColor_override"						"White"
		"depressedFgColor_override" 				"White"
	}

	"AcceptButton"
	{
		"ControlName"								"CExImageButton"
		"fieldName"									"AcceptButton"
		"xpos"										"177"
		
		"if_one_button"
		{
			"xpos"									"198"
		}
		
		"ypos"										"3"
		"zpos"										"10"
		"wide"										"24"
		"tall"										"24"
		"autoResize"								"0"
		"pinCorner"									"0"
		"visible"									"0"
		"enabled"									"1"
		"tabPosition"								"0"
		"labeltext"									"m"
		"font"										"Symbols 18"
		"textAlignment"								"center"
		"dulltext"									"0"
		"brighttext"								"0"
		"default"									"1"
		"sound_depressed"							"UI/buttonclick.wav"
		"sound_released"							"UI/buttonclickrelease.wav"
		"Command"									"accept"

		"paintbackground"							"0"
		"border_default"							"MaterialGrayDarkest"
		"border_armed"								"MaterialGreen"

		"defaultFgColor_override"					"White"
		"armedFgColor_override"						"White"
		"depressedFgColor_override" 				"White"
	}

	"DeclineButton"
	{
		"ControlName"								"CExImageButton"
		"fieldName"									"DeclineButton"
		"xpos"										"198"
		"ypos"										"3"
		"zpos"										"10"
		"wide"										"24"
		"tall"										"24"
		"autoResize"								"0"
		"pinCorner"									"0"
		"visible"									"0"
		"enabled"									"1"
		"tabPosition"								"0"
		"labeltext"									"-"
		"font"										"Symbols 18"
		"textAlignment"								"center"
		"dulltext"									"0"
		"brighttext"								"0"
		"default"									"1"
		"sound_depressed"							"UI/buttonclick.wav"
		"sound_released"							"UI/buttonclickrelease.wav"
		"Command"									"decline"

		"paintbackground"							"0"
		"border_default"							"MaterialGrayDarkest"
		"border_armed"								"MaterialRed"

		"defaultFgColor_override"					"White"
		"armedFgColor_override"						"White"
		"depressedFgColor_override" 				"White"
	}
}