"Resource/UI/ClassSelection.res"
{
	"class"
	{
		"ControlName"								"Frame"
		"fieldName"									"class"
		"xpos"										"0"
		"ypos"										"0"
		"wide"										"f0"
		"tall"										"480"
		"autoResize"								"0"
		"pinCorner"									"0"
		"visible"									"1"
		"enabled"									"1"
		"tabPosition"								"0"
	}
	
	"ClassSelectFrame"
	{
		"ControlName"     		  					"EditablePanel"
		"fieldName"	        	  					"ClassSelectFrame"
		"xpos"										"cs-0.5"
		"ypos"										"-5"
		"zpos"										"1"
		"wide"										"p1.02"
		"tall"										"25"
		"visible"									"1"
		"enabled"									"1"
		"border"									"MaterialTransparent70"
	}
	
	"ClassSelect"
	{
		"ControlName"								"Label"
		"fieldName"									"ClassSelect"
		"xpos"										"0"
		"ypos"										"-4"
		"zpos"										"2"
		"wide"										"f0"
		"tall"										"20"
		"autoResize"								"0"
		"pinCorner"									"0"
		"visible"									"1"
		"enabled"									"1"
		"labelText"									"select a class!"
		"textAlignment"								"center"
		"AllCaps"									"1"
		"dulltext"									"0"
		"brighttext"								"1"
		"font"										"Size 14"
		"fgcolor_override"							"White"
		
		"pin_to_sibling" 							"ClassSelectFrame"
		"pin_corner_to_sibling" 					"PIN_CENTER_TOP"
		"pin_to_sibling_corner" 					"PIN_CENTER_TOP"
	}
	
	"ClassSelectionBG"
	{
		"ControlName"     		  					"EditablePanel"
		"fieldName"	        	  					"ClassSelectionBG"
		"xpos"										"c0"
		"ypos"										"c-123"
		"zpos"										"1"
		"wide"										"158"
		"tall"										"237"
		"visible"									"1"
		"enabled"									"1"
		"border"									"MaterialTransparent70"
	}
	"PlayerModelBG"
	{
		"ControlName"     		  					"EditablePanel"
		"fieldName"	        	  					"PlayerModelBG"
		"xpos"										"c-158"
		"ypos"										"c-123"
		"zpos"										"1"
		"wide"										"158"
		"tall"										"237"
		"visible"									"1"
		"enabled"									"1"
		"border"									"MaterialTransparent70"
	}
	
	"ClassesAnchor"									//////MOVES THE WHOLE CLASS LIST THROUGH PINNING (no model)
	{
		"ControlName"								"EditablePanel"
		"fieldName"									"ClassesAnchor"
		"xpos"										"c4"
		"ypos"										"c-8"
		"wide"										"f0"
		"tall"										"f0"
		"visible"									"1"
		"enabled"									"1"
	}

	"CancelButton"
	{
		"ControlName"								"CExButton"
		"fieldName"									"CancelButton"
		"xpos"										"0"
		"ypos"										"r23"
		"zpos"										"6"
		"wide"										"85"
		"tall"										"22"
		"visible"									"1"
		"enabled"									"1"
		"labelText"									"(&Q) CANCEL"
		"textAlignment"								"center"
		"textinsety"								"1"
		"textinsetx"								"10"
		"Command"									"vguicancel"
		"Default"									"1"
		"font"										"Size 14"
		"AllCaps"									"1"
		
		"paintbackground"							"0"
		
		"fgcolor"									"White"
		"fgcolor_override"							"White"
		
		"border_default"							"MaterialTransparent70"
		"border_Selected"							"MaterialHypno"
		
		"stayselectedonclick"						"0"
		"selectonhover"								"1"
		"keyboardinputenabled"						"0"

	}
	
	"random"
	{
		"xpos"										"r85"
		"ypos"										"r23"
		"zpos"										"6"
		"wide"										"85"
		"tall"										"22"
		"visible"									"1"
		"enabled"									"1"
		"labelText"									"(&R) RANDOM"
		"textAlignment"								"center"
		"textinsety"								"1"
		"textinsetx"								"10"
		"Command"									"joinclass random"
		"Default"									"1"
		"font"										"Size 14"
		"AllCaps"									"1"
		
		"paintbackground"							"0"
		
		"fgcolor"									"White"
		"fgcolor_override"							"White"
		
		"border_default"							"MaterialTransparent70"
		"border_Selected"							"MaterialHypno"
		
		"stayselectedonclick"						"0"
		"selectonhover"								"1"
		"keyboardinputenabled"						"0"			
	}

	"EditLoadoutButton"
	{
		"ControlName"								"CExButton"
		"fieldName"									"EditLoadoutButton"
		"xpos"										"r170"
		"ypos"										"r23"
		"zpos"										"6"
		"wide"										"85"
		"tall"										"22"
		"visible"									"1"
		"enabled"									"1"
		"labelText"									"(&E) LOADOUT"
		"textAlignment"								"center"
		"textinsety"								"1"
		"textinsetx"								"10"
		"Command"									"openloadout"
		"Default"									"1"
		"font"										"Size 14"
		"AllCaps"									"1"
		
		"paintbackground"							"0"
		
		"fgcolor"									"White"
		"fgcolor_override"							"White"
		
		"border_default"							"MaterialTransparent70"
		"border_Selected"							"MaterialHypno"
		
		"stayselectedonclick"						"0"
		"selectonhover"								"1"
		"keyboardinputenabled"						"0"
	}
	
	"Offense"
	{
		"ControlName"								"CExLabel"
		"fieldName"									"Offense"
		"xpos"										"-3"
		"ypos"										"-4"
		"zpos"										"12"
		"wide"										"90"
		"tall"										"22"
		"autoResize"								"1"
		"pinCorner"									"0"
		"visible"									"1"
		"enabled"									"1"
		"tabPosition"								"0"
		"labelText"									"offense"
		"textAlignment"								"west"
		"AllCaps"									"1"
		"font"										"Size 18"
		"fgcolor"									"White"
		
		"pin_to_sibling" 							"scout"
		"pin_corner_to_sibling" 					"PIN_BOTTOMLEFT"
		"pin_to_sibling_corner" 					"PIN_TOPLEFT"
	}
	"OffenseShadow"
	{
		"ControlName"								"CExLabel"
		"fieldName"									"OffenseShadow"
		"xpos"										"-1"
		"ypos"										"-1"
		"zpos"										"11"
		"wide"										"90"
		"tall"										"22"
		"autoResize"								"1"
		"pinCorner"									"0"
		"visible"									"1"
		"enabled"									"1"
		"tabPosition"								"0"
		"labelText"									"offense"
		"textAlignment"								"west"
		"AllCaps"									"1"
		"font"										"Size 18 Blur"
		"fgcolor"									"Shadow"
		"pin_to_sibling" 							"Offense"
	}
	
	"scout"
	{
		"ControlName"								"CExImageButton"
		"fieldName"									"scout"
		"xpos"										"0"
		"ypos"										"-2"
		"zpos"										"6"
		"wide"										"150"
		"tall"										"22"
		"autoResize"								"0"
		"pinCorner"									"0"
		"visible"									"1"
		"enabled"									"1"
		"tabPosition"								"0"
		"labelText"									"scout"
		"textinsetx"								"10"
		"labelText"									""
		"textAlignment"								"west"
		"Command"									"select 1"
		"Default"									"0"
		"font"										"Size 14"
		"scaleImage"								"1"
		"AllCaps"									"1"
		"image_default"								"class_sel_sm_scout_inactive"
		"image_armed"								"class_sel_sm_scout_inactive"
		"sound_depressed"							"UI/buttonclick.wav"
		"sound_released"							"UI/buttonclickrelease.wav"
		"sound_armed"								"UI/buttonrollover.wav"
		"stayselectedonclick"						"1"
		"selectonhover"								"1"
		"keyboardinputenabled"						"0"
		
		"paintbackground"							"0"
		
		"fgcolor"									"White"
		"defaultFgColor_override" 					"White"
		"armedFgColor_override" 					"White"
		"depressedFgColor_override" 				"White"
		"selectedFgColor_override" 					"White"
		
		"border_default"							"MaterialTransparent70"
		"border_Selected"							"MaterialHypno"
		
		"pin_to_sibling" 							"soldier"
		"pin_corner_to_sibling" 					"PIN_BOTTOMLEFT"
		"pin_to_sibling_corner" 					"PIN_TOPLEFT"
	}
	
	"soldier"
	{
		"ControlName"								"CExImageButton"
		"fieldName"									"soldier"
		"xpos"										"0"
		"ypos"										"-2"
		"zpos"										"6"
		"wide"										"150"
		"tall"										"22"
		"autoResize"								"0"
		"pinCorner"									"0"
		"visible"									"1"
		"enabled"									"1"
		"tabPosition"								"0"
		"labelText"									"soldier"
		"textinsetx"								"10"
		"labelText"									""
		"textAlignment"								"west"
		"Command"									"select 3"
		"Default"									"0"
		"font"										"Size 14"
		"scaleImage"								"1"
		"AllCaps"									"1"
		"image_default"								"class_sel_sm_scout_inactive"
		"image_armed"								"class_sel_sm_scout_inactive"
		"sound_depressed"							"UI/buttonclick.wav"
		"sound_released"							"UI/buttonclickrelease.wav"
		"sound_armed"								"UI/buttonrollover.wav"
		"stayselectedonclick"						"1"
		"selectonhover"								"1"
		"keyboardinputenabled"						"0"
		
		"paintbackground"							"0"
		
		"fgcolor"									"White"
		"defaultFgColor_override" 					"White"
		"armedFgColor_override" 					"White"
		"depressedFgColor_override" 				"White"
		"selectedFgColor_override" 					"White"
		
		"border_default"							"MaterialTransparent70"
		"border_Selected"							"MaterialHypno"
		
		"pin_to_sibling" 							"pyro"
		"pin_corner_to_sibling" 					"PIN_BOTTOMLEFT"
		"pin_to_sibling_corner" 					"PIN_TOPLEFT"
	}
	
	"pyro"
	{
		"ControlName"								"CExImageButton"
		"fieldName"									"pyro"
		"xpos"										"0"
		"ypos"										"14"
		"zpos"										"6"
		"wide"										"150"
		"tall"										"22"
		"autoResize"								"0"
		"pinCorner"									"0"
		"visible"									"1"
		"enabled"									"1"
		"tabPosition"								"0"
		"labelText"									"pyro"
		"textinsetx"								"10"
		"labelText"									""
		"textAlignment"								"west"
		"Command"									"select 7"
		"Default"									"0"
		"font"										"Size 14"
		"scaleImage"								"1"
		"AllCaps"									"1"
		"image_default"								"class_sel_sm_scout_inactive"
		"image_armed"								"class_sel_sm_scout_inactive"
		"sound_depressed"							"UI/buttonclick.wav"
		"sound_released"							"UI/buttonclickrelease.wav"
		"sound_armed"								"UI/buttonrollover.wav"
		"stayselectedonclick"						"1"
		"selectonhover"								"1"
		"keyboardinputenabled"						"0"
		
		"paintbackground"							"0"
		
		"fgcolor"									"White"
		"defaultFgColor_override" 					"White"
		"armedFgColor_override" 					"White"
		"depressedFgColor_override" 				"White"
		"selectedFgColor_override" 					"White"
		
		"border_default"							"MaterialTransparent70"
		"border_Selected"							"MaterialHypno"
		
		"pin_to_sibling" 							"demoman"
		"pin_corner_to_sibling" 					"PIN_BOTTOMLEFT"
		"pin_to_sibling_corner" 					"PIN_TOPLEFT"
	}
	
	"Defense"
	{
		"ControlName"								"CExLabel"
		"fieldName"									"Defense"
		"xpos"										"-3"
		"ypos"										"-4"
		"zpos"										"12"
		"wide"										"90"
		"tall"										"22"
		"autoResize"								"1"
		"pinCorner"									"0"
		"visible"									"1"
		"enabled"									"1"
		"tabPosition"								"0"
		"labelText"									"defense"
		"textAlignment"								"left"
		"AllCaps"									"1"
		"font"										"Size 18"
		"fgcolor"									"White"
		
		"pin_to_sibling" 							"demoman"
		"pin_corner_to_sibling" 					"PIN_BOTTOMLEFT"
		"pin_to_sibling_corner" 					"PIN_TOPLEFT"
	}
	"DefenseShadow"
	{
		"ControlName"								"CExLabel"
		"fieldName"									"DefenseShadow"
		"xpos"										"-1"
		"ypos"										"-1"
		"zpos"										"11"
		"wide"										"90"
		"tall"										"22"
		"autoResize"								"1"
		"pinCorner"									"0"
		"visible"									"1"
		"enabled"									"1"
		"tabPosition"								"0"
		"labelText"									"defense"
		"textAlignment"								"west"
		"AllCaps"									"1"
		"font"										"Size 18 Blur"
		"fgcolor"									"Shadow"
		"pin_to_sibling" 							"Defense"
	}
	
	"demoman"
	{
		"ControlName"								"CExImageButton"
		"fieldName"									"demoman"
		"xpos"										"0"
		"ypos"										"-2"
		"zpos"										"6"
		"wide"										"150"
		"tall"										"22"
		"autoResize"								"0"
		"pinCorner"									"0"
		"visible"									"1"
		"enabled"									"1"
		"tabPosition"								"0"
		"labelText"									"demoman"
		"textinsetx"								"10"
		"labelText"									""
		"textAlignment"								"west"
		"Command"									"select 4"
		"Default"									"0"
		"font"										"Size 14"
		"scaleImage"								"1"
		"AllCaps"									"1"
		"sound_depressed"							"UI/buttonclick.wav"
		"sound_released"							"UI/buttonclickrelease.wav"
		"sound_armed"								"UI/buttonrollover.wav"
		"stayselectedonclick"						"1"
		"selectonhover"								"1"
		"keyboardinputenabled"						"0"
		
		"paintbackground"							"0"
		
		"fgcolor"									"White"
		"defaultFgColor_override" 					"White"
		"armedFgColor_override" 					"White"
		"depressedFgColor_override" 				"White"
		"selectedFgColor_override" 					"White"
		
		"border_default"							"MaterialTransparent70"
		"border_Selected"							"MaterialHypno"
		
		"pin_to_sibling" 							"heavyweapons"
		"pin_corner_to_sibling" 					"PIN_BOTTOMLEFT"
		"pin_to_sibling_corner" 					"PIN_TOPLEFT"
	}
	
	"heavyweapons"
	{
		"ControlName"								"CExImageButton"
		"fieldName"									"heavyweapons"
		"xpos"										"0"
		"ypos"										"0"
		"zpos"										"6"
		"wide"										"150"
		"tall"										"22"
		"autoResize"								"0"
		"pinCorner"									"0"
		"visible"									"1"
		"enabled"									"1"
		"tabPosition"								"0"
		"labelText"									"heavy"
		"textinsetx"								"10"
		"labelText"									""
		"textAlignment"								"west"
		"Command"									"select 6"
		"Default"									"0"
		"font"										"Size 14"
		"scaleImage"								"1"
		"AllCaps"									"1"
		"image_default"								"class_sel_sm_scout_inactive"
		"image_armed"								"class_sel_sm_scout_inactive"
		"sound_depressed"							"UI/buttonclick.wav"
		"sound_released"							"UI/buttonclickrelease.wav"
		"sound_armed"								"UI/buttonrollover.wav"
		"stayselectedonclick"						"1"
		"selectonhover"								"1"
		"keyboardinputenabled"						"0"
		
		"paintbackground"							"0"
		
		"fgcolor"									"White"
		"defaultFgColor_override" 					"White"
		"armedFgColor_override" 					"White"
		"depressedFgColor_override" 				"White"
		"selectedFgColor_override" 					"White"
		
		"border_default"							"MaterialTransparent70"
		"border_Selected"							"MaterialHypno"
		"pin_to_sibling" 							"ClassesAnchor"
	}
	
	"engineer"
	{
		"ControlName"								"CExImageButton"
		"fieldName"									"engineer"
		"xpos"										"0"
		"ypos"										"-2"
		"zpos"										"6"
		"wide"										"150"
		"tall"										"22"
		"autoResize"								"0"
		"pinCorner"									"0"
		"visible"									"1"
		"enabled"									"1"
		"tabPosition"								"0"
		"labelText"									"engineer"
		"textinsetx"								"10"
		"labelText"									""
		"textAlignment"								"west"
		"Command"									"select 9"
		"Default"									"0"
		"font"										"Size 14"
		"scaleImage"								"1"
		"AllCaps"									"1"
		"image_default"								"class_sel_sm_scout_inactive"
		"image_armed"								"class_sel_sm_scout_inactive"
		"sound_depressed"							"UI/buttonclick.wav"
		"sound_released"							"UI/buttonclickrelease.wav"
		"sound_armed"								"UI/buttonrollover.wav"
		"stayselectedonclick"						"1"
		"selectonhover"								"1"
		"keyboardinputenabled"						"0"
		
		"paintbackground"							"0"
		
		"fgcolor"									"White"
		"defaultFgColor_override" 					"White"
		"armedFgColor_override" 					"White"
		"depressedFgColor_override" 				"White"
		"selectedFgColor_override" 					"White"
		
		"border_default"							"MaterialTransparent70"
		"border_Selected"							"MaterialHypno"
		
		"pin_to_sibling" 							"heavyweapons"
		"pin_corner_to_sibling" 					"PIN_TOPLEFT"
		"pin_to_sibling_corner" 					"PIN_BOTTOMLEFT"
	}
	
	"Support"
	{
		"ControlName"								"CExLabel"
		"fieldName"									"Support"
		"xpos"										"-3"
		"ypos"										"-4"
		"zpos"										"12"
		"wide"										"90"
		"tall"										"22"
		"autoResize"								"1"
		"pinCorner"									"0"
		"visible"									"1"
		"enabled"									"1"
		"tabPosition"								"0"
		"labelText"									"support"
		"textAlignment"								"left"
		"AllCaps"									"1"
		"font"										"Size 18"
		"fgcolor"									"White"
		
		"pin_to_sibling" 							"engineer"
		"pin_corner_to_sibling" 					"PIN_TOPLEFT"
		"pin_to_sibling_corner" 					"PIN_BOTTOMLEFT"
	}
	"SupportShadow"
	{
		"ControlName"								"CExLabel"
		"fieldName"									"SupportShadow"
		"xpos"										"-1"
		"ypos"										"-1"
		"zpos"										"11"
		"wide"										"90"
		"tall"										"22"
		"autoResize"								"1"
		"pinCorner"									"0"
		"visible"									"1"
		"enabled"									"1"
		"tabPosition"								"0"
		"labelText"									"support"
		"textAlignment"								"west"
		"AllCaps"									"1"
		"font"										"Size 18 Blur"
		"fgcolor"									"Shadow"
		"pin_to_sibling" 							"Support"
	}
	
	"medic"
	{
		"ControlName"								"CExImageButton"
		"fieldName"									"medic"
		"xpos"										"0"
		"ypos"										"14"
		"zpos"										"6"
		"wide"										"150"
		"tall"										"22"
		"autoResize"								"0"
		"pinCorner"									"0"
		"visible"									"1"
		"enabled"									"1"
		"tabPosition"								"0"
		"labelText"									"medic"
		"textinsetx"								"10"
		"labelText"									""
		"textAlignment"								"west"
		"Command"									"select 5"
		"Default"									"0"
		"font"										"Size 14"
		"scaleImage"								"1"
		"AllCaps"									"1"
		"image_default"								"class_sel_sm_scout_inactive"
		"image_armed"								"class_sel_sm_scout_inactive"
		"sound_depressed"							"UI/buttonclick.wav"
		"sound_released"							"UI/buttonclickrelease.wav"
		"sound_armed"								"UI/buttonrollover.wav"
		"stayselectedonclick"						"1"
		"selectonhover"								"1"
		"keyboardinputenabled"						"0"
		
		"paintbackground"							"0"
		
		"fgcolor"									"White"
		"defaultFgColor_override" 					"White"
		"armedFgColor_override" 					"White"
		"depressedFgColor_override" 				"White"
		"selectedFgColor_override" 					"White"
		
		"border_default"							"MaterialTransparent70"
		"border_Selected"							"MaterialHypno"
		
		"pin_to_sibling" 							"engineer"
		"pin_corner_to_sibling" 					"PIN_TOPLEFT"
		"pin_to_sibling_corner" 					"PIN_BOTTOMLEFT"
	}
	
	"sniper"
	{
		"ControlName"								"CExImageButton"
		"fieldName"									"sniper"
		"xpos"										"0"
		"ypos"										"-2"
		"zpos"										"6"
		"wide"										"150"
		"tall"										"22"
		"autoResize"								"0"
		"pinCorner"									"0"
		"visible"									"1"
		"enabled"									"1"
		"tabPosition"								"0"
		"labelText"									"sniper"
		"textinsetx"								"10"
		"labelText"									""
		"textAlignment"								"west"
		"Command"									"select 2"
		"Default"									"0"
		"font"										"Size 14"
		"scaleImage"								"1"
		"AllCaps"									"1"
		"image_default"								"class_sel_sm_scout_inactive"
		"image_armed"								"class_sel_sm_scout_inactive"
		"sound_depressed"							"UI/buttonclick.wav"
		"sound_released"							"UI/buttonclickrelease.wav"
		"sound_armed"								"UI/buttonrollover.wav"
		"stayselectedonclick"						"1"
		"selectonhover"								"1"
		"keyboardinputenabled"						"0"
		
		"paintbackground"							"0"
		
		"fgcolor"									"White"
		"defaultFgColor_override" 					"White"
		"armedFgColor_override" 					"White"
		"depressedFgColor_override" 				"White"
		"selectedFgColor_override" 					"White"
		
		"border_default"							"MaterialTransparent70"
		"border_Selected"							"MaterialHypno"
		
		"pin_to_sibling" 							"medic"
		"pin_corner_to_sibling" 					"PIN_TOPLEFT"
		"pin_to_sibling_corner" 					"PIN_BOTTOMLEFT"
	}
	
	"spy"
	{
		"ControlName"								"CExImageButton"
		"fieldName"									"spy"
		"xpos"										"0"
		"ypos"										"-2"
		"zpos"										"6"
		"wide"										"150"
		"tall"										"22"
		"autoResize"								"0"
		"pinCorner"									"0"
		"visible"									"1"
		"enabled"									"1"
		"tabPosition"								"0"
		"labelText"									"spy"
		"textinsetx"								"10"
		"labelText"									""
		"textAlignment"								"west"
		"Command"									"select 8"
		"Default"									"0"
		"font"										"Size 14"
		"scaleImage"								"1"
		"AllCaps"									"1"
		"image_default"								"class_sel_sm_scout_inactive"
		"image_armed"								"class_sel_sm_scout_inactive"
		"sound_depressed"							"UI/buttonclick.wav"
		"sound_released"							"UI/buttonclickrelease.wav"
		"sound_armed"								"UI/buttonrollover.wav"
		"stayselectedonclick"						"1"
		"selectonhover"								"1"
		"keyboardinputenabled"						"0"
		
		"paintbackground"							"0"
		
		"fgcolor"									"White"
		"defaultFgColor_override" 					"White"
		"armedFgColor_override" 					"White"
		"depressedFgColor_override" 				"White"
		"selectedFgColor_override" 					"White"
		
		"border_default"							"MaterialTransparent70"
		"border_Selected"							"MaterialHypno"
		
		"pin_to_sibling" 							"sniper"
		"pin_corner_to_sibling" 					"PIN_TOPLEFT"
		"pin_to_sibling_corner" 					"PIN_BOTTOMLEFT"
	}
	
	"numScout"
	{
		"ControlName"								"CExLabel"
		"fieldName"									"numScout"
		"xpos"										"-5"
		"ypos"										"0"
		"zpos"										"8"
		"wide"										"45"
		"tall"										"22"
		"autoResize"								"1"
		"pinCorner"									"0"
		"visible"									"1"
		"enabled"									"1"
		"tabPosition"								"0"
		"AllCaps"									"1"
		"labelText"									"%numscout%"
		"font"										"Size 14"
		"textAlignment"								"east"
		"fgcolor"									"White"
		
		"pin_to_sibling" 							"scout"
		"pin_corner_to_sibling" 					"PIN_CENTER_RIGHT"
		"pin_to_sibling_corner" 					"PIN_CENTER_RIGHT"
	}
	
	"numSoldier"
	{
		"ControlName"								"CExLabel"
		"fieldName"									"numSoldier"
		"xpos"										"-5"
		"ypos"										"0"
		"zpos"										"8"
		"wide"										"45"
		"tall"										"22"
		"autoResize"								"1"
		"pinCorner"									"0"
		"visible"									"1"
		"enabled"									"1"
		"tabPosition"								"0"
		"AllCaps"									"1"
		"labelText"									"%numsoldier%"
		"font"										"Size 14"
		"textAlignment"								"east"
		"fgcolor"									"White"
		
		"pin_to_sibling" 							"soldier"
		"pin_corner_to_sibling" 					"PIN_CENTER_RIGHT"
		"pin_to_sibling_corner" 					"PIN_CENTER_RIGHT"
	}		
	
	"numPyro"
	{
		"ControlName"								"CExLabel"
		"fieldName"									"numPyro"
		"xpos"										"-5"
		"ypos"										"0"
		"zpos"										"8"
		"wide"										"45"
		"tall"										"22"
		"autoResize"								"1"
		"pinCorner"									"0"
		"visible"									"1"
		"enabled"									"1"
		"tabPosition"								"0"
		"AllCaps"									"1"
		"labelText"									"%numpyro%"
		"font"										"Size 14"
		"textAlignment"								"east"
		"fgcolor"									"White"
		
		"pin_to_sibling" 							"pyro"
		"pin_corner_to_sibling" 					"PIN_CENTER_RIGHT"
		"pin_to_sibling_corner" 					"PIN_CENTER_RIGHT"
	}				
	
	"numDemoman"
	{
		"ControlName"								"CExLabel"
		"fieldName"									"numDemoman"
		"xpos"										"-5"
		"ypos"										"0"
		"zpos"										"8"
		"wide"										"45"
		"tall"										"22"
		"autoResize"								"1"
		"pinCorner"									"0"
		"visible"									"1"
		"enabled"									"1"
		"tabPosition"								"0"
		"AllCaps"									"1"
		"labelText"									"%numdemoman%"
		"font"										"Size 14"
		"textAlignment"								"east"
		"fgcolor"									"White"
		
		"pin_to_sibling" 							"demoman"
		"pin_corner_to_sibling" 					"PIN_CENTER_RIGHT"
		"pin_to_sibling_corner" 					"PIN_CENTER_RIGHT"
	}				
	
	"numHeavy"
	{
		"ControlName"								"CExLabel"
		"fieldName"									"numHeavy"
		"xpos"										"-5"
		"ypos"										"0"
		"zpos"										"8"
		"wide"										"45"
		"tall"										"22"
		"autoResize"								"1"
		"pinCorner"									"0"
		"visible"									"1"
		"enabled"									"1"
		"tabPosition"								"0"
		"AllCaps"									"1"
		"labelText"									"%numheavy%"
		"font"										"Size 14"
		"textAlignment"								"east"
		"fgcolor"									"White"
		
		"pin_to_sibling" 							"heavyweapons"
		"pin_corner_to_sibling" 					"PIN_CENTER_RIGHT"
		"pin_to_sibling_corner" 					"PIN_CENTER_RIGHT"
	}					
	
	"numEngineer"
	{
		"ControlName"								"CExLabel"
		"fieldName"									"numEngineer"
		"xpos"										"-5"
		"ypos"										"0"
		"zpos"										"8"
		"wide"										"45"
		"tall"										"22"
		"autoResize"								"1"
		"pinCorner"									"0"
		"visible"									"1"
		"enabled"									"1"
		"tabPosition"								"0"
		"AllCaps"									"1"
		"labelText"									"%numengineer%"
		"font"										"Size 14"
		"textAlignment"								"east"
		"fgcolor"									"White"
		
		"pin_to_sibling" 							"engineer"
		"pin_corner_to_sibling" 					"PIN_CENTER_RIGHT"
		"pin_to_sibling_corner" 					"PIN_CENTER_RIGHT"
	}						
	
	"numMedic"
	{
		"ControlName"								"CExLabel"
		"fieldName"									"numMedic"
		"xpos"										"-5"
		"ypos"										"0"
		"zpos"										"8"
		"wide"										"45"
		"tall"										"22"
		"autoResize"								"1"
		"pinCorner"									"0"
		"visible"									"1"
		"enabled"									"1"
		"tabPosition"								"0"
		"AllCaps"									"1"
		"labelText"									"%nummedic%"
		"font"										"Size 14"
		"textAlignment"								"east"
		"fgcolor"									"White"
		
		"pin_to_sibling" 							"medic"
		"pin_corner_to_sibling" 					"PIN_CENTER_RIGHT"
		"pin_to_sibling_corner" 					"PIN_CENTER_RIGHT"
	}
	
	"numSniper"
	{
		"ControlName"								"CExLabel"
		"fieldName"									"numSniper"
		"xpos"										"-5"
		"ypos"										"0"
		"zpos"										"8"
		"wide"										"45"
		"tall"										"22"
		"autoResize"								"1"
		"pinCorner"									"0"
		"visible"									"1"
		"enabled"									"1"
		"tabPosition"								"0"
		"AllCaps"									"1"
		"labelText"									"%numsniper%"
		"font"										"Size 14"
		"textAlignment"								"east"
		"fgcolor"									"White"
		
		"pin_to_sibling" 							"sniper"
		"pin_corner_to_sibling" 					"PIN_CENTER_RIGHT"
		"pin_to_sibling_corner" 					"PIN_CENTER_RIGHT"
	}							
	
	"numSpy"
	{
		"ControlName"								"CExLabel"
		"fieldName"									"numSpy"
		"xpos"										"-5"
		"ypos"										"0"
		"zpos"										"8"
		"wide"										"45"
		"tall"										"22"
		"autoResize"								"1"
		"pinCorner"									"0"
		"visible"									"1"
		"enabled"									"1"
		"tabPosition"								"0"
		"AllCaps"									"1"
		"labelText"									"%numspy%"
		"font"										"Size 14"
		"textAlignment"								"east"
		"fgcolor"									"White"
		
		"pin_to_sibling" 							"spy"
		"pin_corner_to_sibling" 					"PIN_CENTER_RIGHT"
		"pin_to_sibling_corner" 					"PIN_CENTER_RIGHT"
	}
	
	"TFPlayerModel"
	{
		"ControlName"								"CTFPlayerModelPanel"
		"fieldName"									"TFPlayerModel"
		
		"xpos"										"c-285"
		"ypos"										"0"
		"zpos"										"6"
		"wide"										"480"
		"tall"										"480"
		
		"autoResize"								"0"
		"pinCorner"									"0"
		"visible"									"1"
		"enabled"									"1"
		
		"render_texture"							"0"
		"fov"										"38"
		"allow_rot"									"0"

		"paintbackground"							"0"
		"paintbackgroundenabled" 					"0"
		"bgcolor_override" 							"Blank"
		
		"model"
		{
			"force_pos"								"1"

			"angles_x" 								"0"
			"angles_y" 								"180"
			"angles_z" 								"0"
			"origin_x" 								"320"
			"origin_y" 								"10"
			"origin_z" 								"-40"
			"frame_origin_x"						"0"
			"frame_origin_y"						"0"
			"frame_origin_z"						"0"
			"spotlight" 							"1"
		
			"modelname"								""
			"vcd"									"class_select.vcd"		
			
			"animation"
			{
				"name"								"PRIMARY"
				"activity"							"ACT_MP_STAND_PRIMARY"
				"default"							"1"
			}
			"animation"
			{
				"name"								"SECONDARY"
				"activity"							"ACT_MP_STAND_SECONDARY"
			}
			"animation"
			{
				"name"								"MELEE"
				"activity"							"ACT_MP_STAND_MELEE"
			}
			"animation"
			{
				"name"								"BUILDING"
				"activity"							"ACT_MP_STAND_BUILDING"
			}
			"animation"
			{
				"name"								"PDA"
				"activity"							"ACT_MP_STAND_PDA"
			}
			"animation"
			{
				"name"								"ITEM1"
				"activity"							"ACT_MP_STAND_ITEM1"
			}						
			"animation"
			{
				"name"								"ITEM2"
				"activity"							"ACT_MP_STAND_ITEM2"
			}	
			"animation"
			{
				"name"								"MELEE_ALLCLASS"
				"activity"							"ACT_MP_STAND_MELEE_ALLCLASS"
			}								
		}
	}
	
	"MvMUpgradeImageScout"
	{
		"ControlName"								"ImagePanel"
		"fieldName"									"MvMUpgradeImageScout"
		"xpos"										"5"
		"ypos"										"1"
		"zpos"										"10"
		"wide"										"15"
		"tall"										"15"
		"visible"									"0"
		"enabled"									"1"
		"image"										"replay/thumbnails/mvm/class_upgraded"
		"scaleImage"								"1"
		
		"pin_to_sibling" 							"Scout"
		"pin_corner_to_sibling" 					"PIN_CENTER_LEFT"
		"pin_to_sibling_corner" 					"PIN_CENTER_RIGHT"
	}
	
	"MvMUpgradeImageSolider"
	{
		"ControlName"								"ImagePanel"
		"fieldName"									"MvMUpgradeImageSolider"
		"xpos"										"5"
		"ypos"										"1"
		"zpos"										"10"
		"wide"										"15"
		"tall"										"15"
		"visible"									"0"
		"enabled"									"1"
		"image"										"replay/thumbnails/mvm/class_upgraded"
		"scaleImage"								"1"
		
		"pin_to_sibling" 							"Soldier"
		"pin_corner_to_sibling" 					"PIN_CENTER_LEFT"
		"pin_to_sibling_corner" 					"PIN_CENTER_RIGHT"
	}
	
	"MvMUpgradeImagePyro" 
	{
		"ControlName"								"ImagePanel"
		"fieldName"									"MvMUpgradeImagePyro" 
		"xpos"										"5"
		"ypos"										"1"
		"zpos"										"10"
		"wide"										"15"
		"tall"										"15"
		"visible"									"0"
		"enabled"									"1"
		"image"										"replay/thumbnails/mvm/class_upgraded"
		"scaleImage"								"1"
		
		"pin_to_sibling" 							"Pyro"
		"pin_corner_to_sibling" 					"PIN_CENTER_LEFT"
		"pin_to_sibling_corner" 					"PIN_CENTER_RIGHT"
	}
	
	"MvMUpgradeImageDemoman" 
	{
		"ControlName"								"ImagePanel"
		"fieldName"									"MvMUpgradeImageDemoman" 
		"xpos"										"5"
		"ypos"										"1"
		"zpos"										"10"
		"wide"										"15"
		"tall"										"15"
		"visible"									"0"
		"enabled"									"1"
		"image"										"replay/thumbnails/mvm/class_upgraded"
		"scaleImage"								"1"
		
		"pin_to_sibling" 							"Demoman"
		"pin_corner_to_sibling" 					"PIN_CENTER_LEFT"
		"pin_to_sibling_corner" 					"PIN_CENTER_RIGHT"
	}
	
	"MvMUpgradeImageHeavy"
	{
		"ControlName"								"ImagePanel"
		"fieldName"									"MvMUpgradeImageHeavy" 
		"xpos"										"5"
		"ypos"										"1"
		"zpos"										"10"
		"wide"										"15"
		"tall"										"15"
		"visible"									"0"
		"enabled"									"1"
		"image"										"replay/thumbnails/mvm/class_upgraded"
		"scaleImage"								"1"
		
		"pin_to_sibling" 							"Heavyweapons"
		"pin_corner_to_sibling" 					"PIN_CENTER_LEFT"
		"pin_to_sibling_corner" 					"PIN_CENTER_RIGHT"
	}
	
	"MvMUpgradeImageEngineer"
	{
		"ControlName"								"ImagePanel"
		"fieldName"									"MvMUpgradeImageEngineer"
		"xpos"										"5"
		"ypos"										"1"
		"zpos"										"10"
		"wide"										"15"
		"tall"										"15"
		"visible"									"0"
		"enabled"									"1"
		"image"										"replay/thumbnails/mvm/class_upgraded"
		"scaleImage"								"1"
		
		"pin_to_sibling" 							"Engineer"
		"pin_corner_to_sibling" 					"PIN_CENTER_LEFT"
		"pin_to_sibling_corner" 					"PIN_CENTER_RIGHT"
	}
	
	"MvMUpgradeImageMedic"
	{
		"ControlName"								"ImagePanel"
		"fieldName"									"MvMUpgradeImageMedic"
		"xpos"										"5"
		"ypos"										"1"
		"zpos"										"10"
		"wide"										"15"
		"tall"										"15"
		"visible"									"0"
		"enabled"									"1"
		"image"										"replay/thumbnails/mvm/class_upgraded"
		"scaleImage"								"1"
		
		"pin_to_sibling" 							"Medic"
		"pin_corner_to_sibling" 					"PIN_CENTER_LEFT"
		"pin_to_sibling_corner" 					"PIN_CENTER_RIGHT"
	}
	
	"MvMUpgradeImageSniper"
	{
		"ControlName"								"ImagePanel"
		"fieldName"									"MvMUpgradeImageSniper"
		"xpos"										"5"
		"ypos"										"1"
		"zpos"										"10"
		"wide"										"15"
		"tall"										"15"
		"visible"									"0"
		"enabled"									"1"
		"image"										"replay/thumbnails/mvm/class_upgraded"
		"scaleImage"								"1"
		
		"pin_to_sibling" 							"Sniper"
		"pin_corner_to_sibling" 					"PIN_CENTER_LEFT"
		"pin_to_sibling_corner" 					"PIN_CENTER_RIGHT"
	}
	
	"MvMUpgradeImageSpy"
	{
		"ControlName"								"ImagePanel"
		"fieldName"									"MvMUpgradeImageSpy"
		"xpos"										"5"
		"ypos"										"1"
		"zpos"										"10"
		"wide"										"15"
		"tall"										"15"
		"visible"									"0"
		"enabled"									"1"
		"image"										"replay/thumbnails/mvm/class_upgraded"
		"scaleImage"								"1"
		
		"pin_to_sibling" 							"Spy"
		"pin_corner_to_sibling" 					"PIN_CENTER_LEFT"
		"pin_to_sibling_corner" 					"PIN_CENTER_RIGHT"
	}
	
	
	
	
	
	//////////////////////////////////REMOVED STUFF//////////////////////////////////
	
	"ResetButton"
	{
		"ControlName"								"CExButton"
		"fieldName"									"ResetButton"
		"xpos"										"9999"
	}
	"ClassMenuSelect"
	{
		"ControlName"								"CExLabel"
		"fieldName"									"ClassMenuSelect"
		"xpos"										"9999"
	}
	"MenuBG"
	{
		"ControlName"								"CModelPanel"
		"fieldName"									"MenuBG"
		"xpos"										"9999"
	}
	"Hint"
	{	
		"ControlName"								"CExLabel"
		"fieldName"									"Hint"
		"xpos"										"9999"
	}
	"ShadedBar"
	{
		"ControlName"								"ImagePanel"
		"fieldName"									"ShadedBar"
		"xpos"										"9999"
	}
	"SysMenu"
	{
		"ControlName"								"Menu"
		"fieldName"									"SysMenu"
		"xpos"										"9999"
	}
	"localPlayerImage"
	{
		"ControlName"								"CTFImagePanel"
		"fieldName"									"localPlayerImage"
		"xpos"										"9999"
	}
	"localPlayerBG"
	{
		"ControlName"								"CTFImagePanel"
		"fieldName"									"localPlayerBG"
		"xpos"										"9999"
	}
	"countImage0"
	{
		"ControlName"								"CTFImagePanel"
		"fieldName"									"countImage0"
		"xpos"										"9999"
	}							
	"countImage1"
	{
		"ControlName"								"CTFImagePanel"
		"fieldName"									"countImage1"
		"xpos"										"9999"
	}
	"countImage2"
	{
		"ControlName"								"CTFImagePanel"
		"fieldName"									"countImage2"
		"xpos"										"9999"
	}
	"countImage3"
	{
		"ControlName"								"CTFImagePanel"
		"fieldName"									"countImage3"
		"xpos"										"9999"
	}
	"countImage4"
	{
		"ControlName"								"CTFImagePanel"
		"fieldName"									"countImage4"
		"xpos"										"9999"
	}
	"countImage5"
	{
		"ControlName"								"CTFImagePanel"
		"fieldName"									"countImage5"
		"xpos"										"9999"
	}
	"countImage6"
	{
		"ControlName"								"CTFImagePanel"
		"fieldName"									"countImage6"
		"xpos"										"9999"
	}
	"countImage7"
	{
		"ControlName"								"CTFImagePanel"
		"fieldName"									"countImage7"
		"xpos"										"9999"
	}
	"countImage8"
	{
		"ControlName"								"CTFImagePanel"
		"fieldName"									"countImage8"
		"xpos"										"9999"
	}
	"countImage9"
	{
		"ControlName"								"CTFImagePanel"
		"fieldName"									"countImage9"
		"xpos"										"9999"
	}
	"countImage10"
	{
		"ControlName"								"CTFImagePanel"
		"fieldName"									"countImage10"
		"xpos"										"9999"
	}
	"CountLabel"
	{
		"ControlName"								"CExLabel"
		"fieldName"									"CountLabel"
		"xpos"										"9999"
	}
	"StartExplanation"
	{
		"ControlName"								"CExplanationPopup"
		"fieldName"									"StartExplanation"
		"xpos"										"9999"
	}
	"ClassTipsPanel"
	{
		"ControlName"								"CTFClassTipsPanel"
		"fieldName"									"ClassTipsPanel"
		"xpos"										"9999"
	}
	"ClassHighlightPanel"
	{
		"ControlName"								"CExplanationPopup"
		"fieldName"									"ClassHighlightPanel"
		"xpos"										"9999"
	}		
}
