"Resource/UI/FullLoadoutPanel.res"
{
	"class_loadout_panel"
	{
		"ControlName"								"Frame"
		"fieldName"									"class_loadout_panel"
		"xpos"										"0"
		"ypos"										"0"
		"wide"										"f0"
		"autoResize"								"0"
		"pinCorner"									"0"
		"visible"									"1"
		"enabled"									"1"
		"tabPosition"								"0"
		"settitlebarvisible"						"0"
		"PaintBackgroundType"						"0"
		"bgcolor_override"							"GrayDarkest"
		"infocus_bgcolor_override" 					"GrayDarkest"
		"outoffocus_bgcolor_override" 				"GrayDarkest"
		
		"item_xpos_offcenter_a"						"-305"//"-320"
		"item_xpos_offcenter_b"						"-180"//"175"
		"item_ypos"									"35"
		"item_ydelta"								"85"
		"item_mod_wide"								"40"
		
		"item_backpack_offcenter_x"					"-288"
		"item_backpack_xdelta"						"4"
		"item_backpack_ydelta"						"3"

		"button_xpos_offcenter"						"175"		
		"button_ypos"								"85"
		"button_ydelta"								"80"
		"button_override_delete_xpos" 				"0"
		
		"modelpanels_kv"
		{
			"ControlName"							"CItemModelPanel"
			"xpos"									"c-70"
			"ypos"									"270"
			"wide"									"120"//"150"
			"tall"									"80"//"80"
			"visible"								"0"
			"bgcolor_override"						"Blank"
			"noitem_textcolor"						"White"
			"PaintBackgroundType"					"2"
			"paintborder"							"1"
			
			"model_center_x"						"1"
			"model_ypos"							"5"			
			"model_tall"							"55"
			"model_wide"							"82"
			"text_ypos"								"60"
			"text_center"							"1"
			"name_only"								"1"
			
			"attriblabel"
			{
				"font"								"Size 11"
				"visible"							"0"
			}
			
			"itemmodelpanel"
			{
				"use_item_rendertarget" 			"0"
				"inventory_image_type"				"1"
				"allow_rot"							"0"
			}
		}

		"itemoptionpanels_kv"
		{
			"ControlName"							"CExButton"
			"xpos"									"0"
			"ypos"									"0"
			"zpos"									"1"
			"wide"									"22"
			"tall"									"22"
			"autoResize"							"0"
			"visible"								"0"
			"enabled"								"1"
			"tabPosition"							"0"
			"labelText"								"}"
			"font"									"Symbols 14"
			"textAlignment"							"center"
			"dulltext"								"0"
			"brighttext"							"0"
			"default"								"1"
			
			"sound_depressed"						"UI/buttonclick.wav"
			"sound_released"						"UI/buttonclickrelease.wav"
			
			"paintbackground"						"0"
			
			"border_default"						"MaterialGrayDarkest"
			"border_armed"							"MaterialHypno"
			
			"defaultFgColor_override" 				"White"
			"armedFgColor_override" 				"White"
			"depressedFgColor_override" 			"White"
		}
	}
	
	"classmodelpanel"
	{
		"ControlName"								"CTFPlayerModelPanel"
		"fieldName"									"classmodelpanel"
		
		"xpos"										"c-100"
		//"ypos"										"20"
		"zpos"										"-1"		
		"wide"										"p0.66"//"270"
		"tall"										"f0"//"340"
		"autoResize"								"0"
		"pinCorner"									"0"
		"visible"									"1"
		"enabled"									"1"
		
		"render_texture"							"0"
		"fov"										"55"
		"allow_manip"								"1"
		
		"model"
		{
			"force_pos"								"1"

			"angles_x" 								"0"
			"angles_y" 								"170"
			"angles_z" 								"0"
			//"origin_x" 								"190"
			//"origin_y" 								"0"
			//"origin_z" 								"-48"
			"origin_x" "120"
			"origin_y" "0"
			"origin_z" "-36"
			//"frame_origin_x"						"0"
			//"frame_origin_y"						"0"
			//"frame_origin_z"						"0"
			"frame_origin_x"	"0"
			"frame_origin_y"	"0"
			"frame_origin_z"	"-42"
			"spotlight" 							"1"
		
			"modelname"								""
		}
	}
	
	"mouseoveritempanel"
	{
		"ControlName"								"CItemModelPanel"
		"fieldName"									"mouseoveritempanel"
		"xpos"										"c-70"
		"ypos"										"270"
		"zpos"										"100"
		"wide"										"300"
		"tall"										"300"
		"visible"									"0"
		"noitem_textcolor"							"White"
		"paintborder"								"1"
 		"paintbackground"							"1"
		"border"								"MaterialReverseBlackLight"
		
		"text_ypos"									"15"
		"text_center"								"1"
		"model_hide"								"1"
		"resize_to_text"							"1"
		"padding_height"							"15"
		
		"attriblabel"
		{
			"font"									"ItemFontAttribLarge"
			"xpos"									"0"
			"ypos"									"0"
			"zpos"									"2"
			"wide"									"140"
			"tall"									"60"
			"autoResize"							"0"
			"pinCorner"								"0"
			"visible"								"1"
			"enabled"								"1"
			"labelText"								"%attriblist%"
			"textAlignment"							"center"
			"fgcolor"								"White"
			"centerwrap"							"1"
		}
	}
	
	"loadout_preset_panel"
	{
		"ControlName"								"CLoadoutPresetPanel"
		"FieldName"									"loadout_preset_panel"
		"xpos"										"50"
		"ypos"										"5"
		"zpos"										"20"
		"wide"										"150"
		"tall"										"25"
		"autoResize"								"0"
		"pinCorner"									"0"
		"visible"									"1"
		"enabled"									"1"
		"tabPosition"								"0"
		"paintbackground"							"0"
	}
	
	"ItemOptionsPanel"
	{
		"ControlName"								"CLoadoutParticleSlider"
		"fieldname"									"ItemOptionsPanel"
		"xpos"										"0"
		"ypos"										"0"
		"zpos"										"100"
		"wide"										"140"
		"tall"										"75"
		"autoResize"								"1"
		"visible"									"0"
		"bgcolor_override"							"BlackLight"
		"PaintBackgroundType"						"0"
	}
	
	"CharacterLoadoutButton"
	{
		"ControlName"								"CExButton"
		"fieldName"									"CharacterLoadoutButton"
		"xpos"										"c-28"
		"ypos"										"c-175"
		"zpos"										"22"
		"wide"										"25"
		"tall"										"25"
		"autoResize"								"0"
		"pinCorner"									"3"
		"visible"									"1"
		"enabled"									"1"
		"tabPosition"								"0"
		"dulltext"									"0"
		"brighttext"								"0"
		"default"									"0"
		"textAlignment"								"center"
		"labelText"									"L"
		"font"										"Symbols 20"
		"Command"									"characterloadout"
		"sound_depressed"							"UI/buttonclick.wav"
		"sound_released"							"UI/buttonclickrelease.wav"
		
		"paintbackground"							"1"

		"defaultFgColor_override"					"White"
		"armedFgColor_override"						"White"
		"depressedFgColor_override" 				"White"
		
		"defaultBgColor_override"					"GrayDark"
		"armedBgColor_override"						"Main Theme"
		"depressedBgColor_override" 				"GrayDark"

	}

	"TauntLoadoutButton"
	{
		"ControlName"								"CExButton"
		"fieldName"									"TauntLoadoutButton"
		"xpos"										"3"
		"ypos"										"0"
		"zpos"										"22"
		"wide"										"25"
		"tall"										"25"
		"autoResize"								"0"
		"pinCorner"									"3"
		"visible"									"1"
		"enabled"									"1"
		"tabPosition"								"0"
		"dulltext"									"0"
		"brighttext"								"0"
		"default"									"0"
		"textAlignment"								"center"
		"labelText"									"^"
		"font"										"Symbols 20"
		"Command"									"tauntloadout"
		"sound_depressed"							"UI/buttonclick.wav"
		"sound_released"							"UI/buttonclickrelease.wav"
		
		"paintbackground"							"1"

		"defaultFgColor_override"					"White"
		"armedFgColor_override"						"White"
		"depressedFgColor_override" 				"White"
		
		"defaultBgColor_override"					"GrayDark"
		"armedBgColor_override"						"Main Theme"
		"depressedBgColor_override" 				"GrayDark"

		"pin_to_sibling" 							"CharacterLoadoutButton"
		"pin_corner_to_sibling" 					"PIN_TOPLEFT"
		"pin_to_sibling_corner" 					"PIN_TOPRIGHT"
	}
	
	"BlueButton"
	{
		"ControlName"								"CExImageButton"
		"fieldName"									"BlueButton"
		"xpos"										"c28"
		"ypos"										"77"
		"zpos"										"20"
		"wide"										"15"
		"tall"										"15"
		"autoResize"								"0"
		"pinCorner"									"2"
		"visible"									"1"
		"enabled"									"1"
		"tabPosition"								"0"
		"labelText"									"v"
		"textAlignment"								"center"
		"font"										"Symbols 14"
		"scaleImage"								"1"
		"command"									"sv_cheats 1; r_skin 1"
		"sound_depressed"							"UI/buttonclick.wav"
		"sound_released"							"UI/buttonclickrelease.wav"
		
		"paintbackground"							"0"
		
		"defaultFgColor_override" 					"Blue"
		"armedFgColor_override" 					"Blue"
		"depressedFgColor_override" 				"Blue"
	} 

	"RedButton"
	{
		"ControlName"								"CExImageButton"
		"fieldName"									"RedButton"
		"xpos"										"c28"
		"ypos"										"64"
		"zpos"										"20"
		"wide"										"15"
		"tall"										"15"
		"autoResize"								"0"
		"pinCorner"									"2"
		"visible"									"1"
		"enabled"									"1"
		"tabPosition"								"0"
		"labelText"									"v"
		"textAlignment"								"center"
		"font"										"Symbols 14"
		"scaleImage"								"1"
		"command"									"sv_cheats 1;r_skin 0"
		"sound_depressed"							"UI/buttonclick.wav"
		"sound_released"							"UI/buttonclickrelease.wav"
		
		"paintbackground"							"0"
		
		"defaultFgColor_override" 					"Red"
		"armedFgColor_override" 					"Red"
		"depressedFgColor_override" 				"Red"
	}
	
	"PresetsExplanation"
	{
		"ControlName"								"CExplanationPopup"
		"fieldName"									"PresetsExplanation"
		"xpos"										"0"
		"ypos"										"0"
		"zpos"										"10000"
		"wide"										"250"
		"tall"										"160"
		"visible"									"0"
		"PaintBackgroundType"						"2"
		"paintbackground" 							"0"
		"border"									"MaterialBlackDark"
		
		"force_close"								"1"
		"end_x"										"c-200"
		"end_y"										"120"
		"end_wide"									"250"
		"end_tall"									"160"
		"callout_inparents_x"						"c0"
		"callout_inparents_y"						"75"
		"next_explanation"							""
		
		"TitleLabel"
		{
			"ControlName"							"CExLabel"
			"fieldName"								"TitleLabel"
			"font"									"Size 14"
			"labelText"								"#ItemPresetsExplanation_Title"
			"textAlignment"							"north"
			"xpos"									"20"
			"ypos"									"10"
			"wide"									"210"
			"tall"									"30"
			"autoResize"							"0"
			"pinCorner"								"0"
			"visible"								"1"
			"enabled"								"1"
			"wrap"									"1"
			"AllCaps"								"1"
			"fgcolor" 								"WhiteDark"
		}
		
		"TextLabel"
		{
			"ControlName"							"CExLabel"
			"fieldName"								"TextLabel"
			"font"									"Size 14"
			"labelText"								"#ClassLoadoutItemPresetsExplanation_Text"
			"textAlignment"							"north-west"
			"xpos"									"20"
			"ypos"									"35"
			"wide"									"210"
			"tall"									"200"
			"autoResize"							"0"
			"pinCorner"								"0"
			"visible"								"1"
			"enabled"								"1"
			"wrap"									"1"
			"fgcolor" 								"WhiteDark"
		}
		
		"CloseButton"
		{
			"ControlName"							"CExImageButton"
			"fieldName"								"CloseButton"
			"xpos"									"225"
			"ypos"									"5"
			"zpos"									"10"
			"wide"									"18"
			"tall"									"18"
			"autoResize"							"0"
			"pinCorner"								"0"
			"visible"								"1"
			"enabled"								"1"
			"tabPosition"							"0"
			"labeltext"								"%"
			"font"									"Symbols 20"
			"textAlignment"							"center"
			"dulltext"								"0"
			"brighttext"							"0"
			"default"								"0"
			"Command"								"close"
			
			"sound_depressed"						"UI/buttonclick.wav"
			"sound_released"						"UI/buttonclickrelease.wav"
			
			"paintbackground"						"0"
			
			"defaultFgColor_override" 				"WhiteDark"
			"armedFgColor_override"					"Red"
			"depressedFgColor_override" 			"Red"
		}		
	}

	"TauntsExplanation"
	{
		"ControlName"								"CExplanationPopup"
		"fieldName"									"TauntsExplanation"
		"xpos"										"0"
		"ypos"										"0"
		"zpos"										"10000"
		"wide"										"250"
		"tall"										"160"
		"visible"									"0"
		"PaintBackgroundType"						"2"
		"paintbackground" 							"0"
		"border"									"MaterialBlackDark"
		
		"force_close"								"1"
		"end_x"										"c-200"
		"end_y"										"120"
		"end_wide"									"250"
		"end_tall"									"140"
		"callout_inparents_x"						"c13"
		"callout_inparents_y"						"55"
		"next_explanation"							""
		
		"TitleLabel"
		{
			"ControlName"							"CExLabel"
			"fieldName"								"TitleLabel"
			"font"									"Size 14"
			"labelText"								"#TauntsExplanation_Title"
			"textAlignment"							"north"
			"xpos"									"20"
			"ypos"									"10"
			"wide"									"210"
			"tall"									"30"
			"autoResize"							"0"
			"pinCorner"								"0"
			"visible"								"1"
			"enabled"								"1"
			"wrap"									"1"
			"AllCaps"								"1"
			"fgcolor" 								"WhiteDark"
		}
		
		"TextLabel"
		{
			"ControlName"							"CExLabel"
			"fieldName"								"TextLabel"
			"font"									"Size 14"
			"labelText"								"#ClassLoadoutTauntsExplanation_Text"
			"textAlignment"							"north-west"
			"xpos"									"20"
			"ypos"									"35"
			"wide"									"210"
			"tall"									"200"
			"autoResize"							"0"
			"pinCorner"								"0"
			"visible"								"1"
			"enabled"								"1"
			"wrap"									"1"
			"fgcolor" 								"White"
		}
		
		"CloseButton"
		{
			"ControlName"							"CExImageButton"
			"fieldName"								"CloseButton"
			"xpos"									"225"
			"ypos"									"5"
			"zpos"									"10"
			"wide"									"18"
			"tall"									"18"
			"autoResize"							"0"
			"pinCorner"								"0"
			"visible"								"1"
			"enabled"								"1"
			"tabPosition"							"0"
			"labeltext"								"%"
			"font"									"Symbols 20"
			"textAlignment"							"center"
			"dulltext"								"0"
			"brighttext"							"0"
			"default"								"0"
			"Command"								"close"
			
			"sound_depressed"						"UI/buttonclick.wav"
			"sound_released"						"UI/buttonclickrelease.wav"
			
			"paintbackground"						"0"
			
			"defaultFgColor_override" 				"WhiteDark"
			"armedFgColor_override"					"Red"
			"depressedFgColor_override" 			"Red"
		}		
	}
	
	
	
	
	/// REMOVED STUFF
	"CaratLabel"
	{
		"ControlName"								"CExLabel"
		"fieldName"									"CaratLabel"
		"xpos"										"9999"
	}
	"ClassLabel"
	{
		"ControlName"								"CExLabel"
		"fieldName"									"ClassLabel"
		"xpos"										"9999"
	}
	"TauntCaratLabel"
	{
		"ControlName"								"CExLabel"
		"fieldName"									"TauntCaratLabel"
		"xpos"										"9999"
	}
	"TauntLabel"
	{
		"ControlName"								"CExLabel"
		"fieldName"									"TauntLabel"
		"xpos"										"9999"
	}
	"TopLine"
	{
		"ControlName"								"ImagePanel"
		"xpos"										"9999"
	}				
	"PassiveAttribsLabel"
	{
		"ControlName"								"CExLabel"
		"fieldName"									"PassiveAttribsLabel"
		"xpos"										"9999"
	}
	"TauntHintLabel"
	{
		"ControlName"								"CExLabel"
		"fieldName"									"TauntHintLabel"
		"xpos"										"9999"
	}
}