"Resource/UI/Hud_Obj_Sentrygun.res"
{
	"BuildingStatusItem"
	{
		"ControlName"								"Frame"
		"fieldName"									"BuildingStatusItem"
		"xpos"										"0"
		"ypos"										"0"
		"wide"										"80"
		"tall"										"32"
		"visible"									"1"
		"enabled"									"1"
	}

	"BackgroundCustom"
	{
		"ControlName"								"EditablePanel"
		"fieldName"									"BackgroundCustom"
		"xpos"										"0"
		"ypos"										"-1"
		"zpos"										"-1"
		"wide"										"80"
		"tall"										"34"
		"visible"									"1"
		"enabled"									"1"
		"proportionaltoparent"						"1"
		"border"									"MaterialTransparent50"
	}

	"IconBackgound"
	{
		"ControlName"								"EditablePanel"
		"fieldName"									"IconBackgound"
		"xpos"										"2"
		"ypos"										"1"
		"zpos"										"0"
		"wide"										"30"
		"tall"										"30"
		"visible"									"1"
		"enabled"									"1"
		"proportionaltoparent"						"1"
		"border"									"MaterialTransparent50"
	}

	"Icon_Sentry_1"
	{
		"ControlName"								"CIconPanel"
		"fieldName"									"Icon_Sentry_1"
		"xpos"										"1"
		"ypos"										"1"
		"zpos"										"1"
		"wide"										"24"
		"tall"										"24"
		"visible"									"1"
		"enabled"									"1"
		"proportionaltoparent"						"1"
		"scaleImage"								"1"
		"icon"										"obj_status_sentrygun_1"
		"iconColor"									"White"

		"pin_to_sibling" 							"IconBackgound"
		"pin_corner_to_sibling" 					"PIN_CENTER_TOP"
		"pin_to_sibling_corner" 					"PIN_CENTER_TOP"
	}

	"Icon_Sentry_2"
	{
		"ControlName"								"CIconPanel"
		"fieldName"									"Icon_Sentry_2"
		"xpos"										"0"
		"ypos"										"-3"
		"zpos"										"1"
		"wide"										"22"
		"tall"										"22"
		"visible"									"0"
		"enabled"									"1"
		"proportionaltoparent"						"1"
		"scaleImage"								"1"
		"icon"										"obj_status_sentrygun_2"
		"iconColor"									"White"

		"pin_to_sibling" 							"IconBackgound"
		"pin_corner_to_sibling" 					"PIN_CENTER_TOP"
		"pin_to_sibling_corner" 					"PIN_CENTER_TOP"
	}

	"Icon_Sentry_3"
	{
		"ControlName"								"CIconPanel"
		"fieldName"									"Icon_Sentry_3"
		"xpos"										"0"
		"ypos"										"-5"
		"zpos"										"1"
		"wide"										"20"
		"tall"										"20"
		"visible"									"0"
		"enabled"									"1"
		"proportionaltoparent"						"1"
		"scaleImage"								"1"
		"icon"										"obj_status_sentrygun_3"
		"iconColor"									"White"

		"pin_to_sibling" 							"IconBackgound"
		"pin_corner_to_sibling" 					"PIN_CENTER_TOP"
		"pin_to_sibling_corner" 					"PIN_CENTER_TOP"
	}

	"NotBuiltPanel"
	{
		"ControlName"								"EditablePanel"
		"fieldName"									"NotBuiltPanel"
		"xpos"										"34"
		"ypos"										"1"
		"wide"										"42"
		"tall"										"30"
		"visible"									"1"
		"proportionaltoparent"						"1"

		"NotBuiltBG"
		{
			"ControlName"							"EditablePanel"
			"fieldName"								"NotBuiltBG"
			"xpos"									"9999"
		}

		"NotBuiltLabel"
		{
			"ControlName"							"CExLabel"
			"fieldName"								"NotBuiltLabel"
			"font"									"Size 9"
			"xpos"									"cs-0.5"
			"ypos"									"cs-0.5"
			"wide"									"f0"
			"tall"									"f0"
			"visible"								"1"
			"enabled"								"1"
			"labelText"								"#Building_hud_sentry_not_built"
			"textAlignment"							"west"
			"AllCaps"								"1"
			"proportionaltoparent"					"1"
		}
	}

	"BuiltPanel"
	{
		"ControlName"								"EditablePanel"
		"fieldName"									"BuiltPanel"
		"xpos"										"2"
		"ypos"										"1"
		"zpos"										"2"
		"wide"										"76"
		"tall"										"30"
		"visible"									"0"
		"proportionaltoparent"						"1"

		"Icon_Upgrade_1"
		{
			"ControlName"							"CIconPanel"
			"fieldName"								"Icon_Upgrade_1"
			"xpos"									"20"
			"ypos"									"20"
			"zpos"									"1"
			"wide"									"14"
			"tall"									"14"
			"visible"								"0"
			"enabled"								"1"
			"scaleImage"							"1"
			"icon"									"obj_status_upgrade_1"
			"iconColor"								"White"
			"proportionaltoparent"					"1"
		}

		"Icon_Upgrade_2"
		{
			"ControlName"							"CIconPanel"
			"fieldName"								"Icon_Upgrade_2"
			"xpos"									"20"
			"ypos"									"20"
			"zpos"									"1"
			"wide"									"14"
			"tall"									"14"
			"visible"								"0"
			"enabled"								"1"
			"scaleImage"							"1"
			"icon"									"obj_status_upgrade_2"
			"iconColor"								"White"
			"proportionaltoparent"					"1"
		}

		"Icon_Upgrade_3"
		{
			"ControlName"							"CIconPanel"
			"fieldName"								"Icon_Upgrade_3"
			"xpos"									"20"
			"ypos"									"20"
			"zpos"									"1"
			"wide"									"14"
			"tall"									"14"
			"visible"								"0"
			"enabled"								"1"
			"scaleImage"							"1"
			"icon"									"obj_status_upgrade_3"
			"iconColor"								"White"
			"proportionaltoparent"					"1"
		}

		"AlertTray"
		{
			"ControlName"							"CBuildingStatusAlertTray"
			"fieldName"								"AlertTray"
			"xpos"									"9999"
		}

		"WrenchIcon"
		{
			"ControlName"							"CIconPanel"
			"fieldName"								"WrenchIcon"
			"xpos"									"9999"
		}

		"SapperIcon"
		{
			"ControlName"							"CIconPanel"
			"fieldName"								"SapperIcon"
			"xpos"									"3"
			"ypos"									"3"
			"zpos"									"10"
			"wide"									"24"
			"tall"									"24"
			"visible"								"0"
			"enabled"								"1"
			"scaleImage"								"1"
			"icon"									"obj_status_sapper"
			"iconColor"								"Black"
			"paintbackground"							"1"
			"bgcolor_override"							"Red"
			"proportionaltoparent"							"1"
		}

		"Health"
		{
			"ControlName"							"CBuildingHealthBar"
			"fieldName"								"Health"
			"xpos"									"rs1-3"
			"ypos"									"cs-0.5"
			"wide"									"6"
			"tall"									"25"
			"visible"								"1"
			"enabled"								"1"
			"proportionaltoparent"					"1"
		}

		"BuildingPanel"
		{
			"ControlName"							"EditablePanel"
			"fieldName"							"BuildingPanel"
			"xpos"								"0"
			"ypos"								"0"
			"wide"								"f0"
			"tall"								"f0"
			"visible"							"0"
			"proportionaltoparent"						"1"
				
			"BuildingProgress"
			{	
				"ControlName"							"ContinuousProgressBar"
				"fieldName"							"BuildingProgress"				
				"xpos"								"32"
				"ypos"								"cs-0.5"
				"wide"								"0"
				"tall"								"6"
				"visible"							"1"
				"enabled"							"1"
				"bgcolor_override"						"130 130 130 255"
				"proportionaltoparent"						"1"
			}

			"BuildingLabel"
			{
				"ControlName"							"Label"
				"fieldName"							"BuildingLabel"
				"font"								"Size 7"
				"xpos"								"0"
				"ypos"								"0"
				"zpos"								"1"
				"wide"								"30"
				"tall"								"6"
				"visible"							"1"
				"enabled"							"1"
				"labelText"							"BUILDING"
				"textAlignment"							"center"
				"proportionaltoparent"						"1"
				"pin_to_sibling" 						"BuildingProgress"
			}
		}

		"RunningPanel"
		{
			"ControlName"							"EditablePanel"
			"fieldName"								"RunningPanel"
			"xpos"									"0"
			"ypos"									"0"
			"wide"									"f0"
			"tall"									"f0"
			"visible"								"0"
			"proportionaltoparent"					"1"

			"KillsLabel"
			{
				"ControlName"						"CExLabel"
				"fieldName"							"KillsLabel"
				"font"								"Size 10"
				"xpos"								"42"
				"ypos"								"3"
				"wide"								"200"
				"tall"								"7"
				"visible"							"1"
				"enabled"							"1"
				"labelText"							"#Building_hud_sentry_kills_assists"
				"textAlignment"						"west"
				"drawcolor"							"White"
				"proportionaltoparent"				"1"
			}
			"KillIcon"
			{
				"ControlName"								"ImagePanel"
				"fieldName"								"KillIcon"			
				"xpos"									"32"
				"ypos"									"3"
				"zpos"									"10"
				"wide"									"8"
				"tall"									"8"
				"visible"								"1"
				"enabled"								"1"
				"scaleImage"								"1"
				"image"									"replay/thumbnails/game/buildingstatus_kills"
				"drawcolor" 								"White"
				"proportionaltoparent"							"1"
			}

			"Shells"
			{
				"ControlName"						"ContinuousProgressBar"
				"fieldName"							"Shells"
				"xpos"								"32"
				"ypos"								"cs-0.5+1"
				"wide"								"30"
				"tall"								"6"
				"visible"							"1"
				"enabled"							"1"
				"proportionaltoparent"				"1"
				"bgcolor_override"					"130 130 130 255"
			}
			"ShellIcon"
			{
				"ControlName"						"ImagePanel"
				"fieldName"							"ShellIcon"
				"xpos"								"0"
				"ypos"								"0"
				"zpos"								"1"
				"wide"								"24"
				"tall"								"6"
				"visible"							"1"
				"enabled"							"1"
				"scaleImage"						"1"
				"image"								"replay/thumbnails/game/buildingstatus_ammo"
				"drawcolor"							"Black"

				"pin_to_sibling" 					"Shells"
				"pin_corner_to_sibling" 			"PIN_CENTER_TOP"
				"pin_to_sibling_corner"				"PIN_CENTER_TOP"
			}

			"Rockets"
			{
				"ControlName"						"ContinuousProgressBar"
				"fieldName"							"Rockets"
				"xpos"								"32"
				"ypos"								"rs1-3"
				"wide"								"30"
				"tall"								"6"
				"visible"							"0"
				"enabled"							"1"
				"proportionaltoparent"				"1"
				"bgcolor_override"					"130 130 130 255"
			}
			"RocketIcon"
			{
				"ControlName"						"ImagePanel"
				"fieldName"							"RocketIcon"
				"xpos"								"0"
				"ypos"								"0"
				"zpos"								"1"
				"wide"								"24"
				"tall"								"6"
				"visible"							"0"
				"enabled"							"1"
				"scaleImage"						"1"
				"image"								"replay/thumbnails/game/buildingstatus_rockets"
				"drawcolor"							"Black"
				"pin_to_sibling" 					"Rockets"
				"pin_corner_to_sibling" 			"PIN_CENTER_TOP"
				"pin_to_sibling_corner"				"PIN_CENTER_TOP"
			}

			"Upgrade"
			{
				"ControlName"						"ContinuousProgressBar"
				"fieldName"							"Upgrade"
				"xpos"								"32"
				"ypos"								"rs1-3"
				"zpos"								"2"
				"wide"								"30"
				"tall"								"6"
				"visible"							"1"
				"enabled"							"1"
				"proportionaltoparent"				"1"
				"bgcolor_override"					"130 130 130 255"
			}
			"UpgradeIcon"
			{
				"ControlName"						"CIconPanel"
				"fieldName"							"UpgradeIcon"
				"xpos"								"0"
				"ypos"								"0"
				"zpos"								"3"
				"wide"								"24"
				"tall"								"6"
				"visible"							"1"
				"enabled"							"1"
				"scaleImage"						"1"
				"icon"								"ico_metal"
				"iconColor"							"Black"

				"pin_to_sibling" 					"Upgrade"
				"pin_corner_to_sibling" 			"PIN_CENTER_TOP"
				"pin_to_sibling_corner"				"PIN_CENTER_TOP"
			}

		}
	}

	"Background"
	{
		"ControlName"								"CIconPanel"
		"fieldName"									"Background"
		"xpos"										"9999"
	}
}