#base 	"../../customizations/damage.res"
// #base 	"huddamageaccount_last.res"

"Resource/UI/HudDamageAccount.res"
{
	"CDamageAccountPanel"
	{
		"fieldName"									"CDamageAccountPanel"
		"text_x"									"0"
		"text_y"									"0"
		"delta_item_end_y"							"0"
		"PositiveColor"								"Heal Numbers"
		"NegativeColor"								"Damage Numbers"
		"delta_lifetime"							"2"
	}
}